<?xml version="1.0" standalone="no"?>
<!DOCTYPE svg PUBLIC "-//W3C//DTD SVG 1.1//EN" "http://www.w3.org/Graphics/SVG/1.1/DTD/svg11.dtd" >
<svg xmlns="http://www.w3.org/2000/svg">
<metadata>Generated by IcoMoon</metadata>
<defs>
<font id="icomoon" horiz-adv-x="1024">
<font-face units-per-em="1024" ascent="960" descent="-64" />
<missing-glyph horiz-adv-x="1024" />
<glyph unicode="&#x20;" horiz-adv-x="512" d="" />
<glyph unicode="&#xe600;" glyph-name="register" d="M616.538 733.689h131.148l0.012-153.008 66.489 103.236v86.538c0 5.286-2.104 10.355-5.842 14.109l-169.604 169.596c-3.738 3.735-8.809 5.839-14.104 5.839h-524.4c-32.997 0-59.848-26.839-59.848-59.838v-904.324c0-32.997 26.848-59.838 59.848-59.838h654.1c32.995 0 59.843 26.841 59.843 59.838v256.748l-66.472-101.72 0.010-148.368h-640.831v891.004h484.952v-135.112c0-13.651 11.057-24.703 24.7-24.703zM888.437 484.272l-27.48 17.954c-4.486 2.928-10.491 1.673-13.424-2.814l-147.963-226.416-28.453 18.59 147.963 226.419c2.933 4.489 1.675 10.494-2.811 13.424l-27.48 17.957c-4.486 2.931-10.496 1.673-13.424-2.814l-221.547-339.024c-0.941-1.441-1.48-3.106-1.568-4.825l-5.79-117.658c-0.168-3.435 1.497-6.715 4.381-8.589 2.884-1.885 6.554-2.097 9.628-0.563l105.431 52.548c1.546 0.763 2.853 1.933 3.799 3.377l221.542 339.022c2.94 4.471 1.677 10.479-2.804 13.412zM979.215 623.189l-99.643 65.117c-4.481 2.928-10.494 1.67-13.424-2.814l-67.201-102.836c-2.928-4.486-1.673-10.498 2.814-13.429l99.643-65.112c4.481-2.931 10.496-1.673 13.424 2.814l67.199 102.834c2.935 4.486 1.675 10.496-2.811 13.427zM203.735 746.759h190.171c13.466 0 24.381 10.918 24.381 24.381s-10.915 24.381-24.381 24.381h-190.171c-13.466 0-24.381-10.918-24.381-24.381s10.92-24.381 24.381-24.381zM564.573 649.236c0 13.463-10.92 24.381-24.381 24.381h-336.457c-13.466 0-24.381-10.918-24.381-24.381s10.915-24.381 24.381-24.381h336.457c13.466 0 24.381 10.918 24.381 24.381zM203.735 502.95h190.171c13.466 0 24.381 10.918 24.381 24.381s-10.915 24.381-24.381 24.381h-190.171c-13.466 0-24.381-10.918-24.381-24.381s10.92-24.381 24.381-24.381zM203.735 381.045h190.171c13.466 0 24.381 10.918 24.381 24.381 0 13.461-10.915 24.381-24.381 24.381h-190.171c-13.466 0-24.381-10.92-24.381-24.381 0-13.463 10.92-24.381 24.381-24.381zM214.055 65.965c-4.747-6.134 3.816-14.828 8.621-8.614 15.148 19.568 27.658 40.645 38.105 62.891 6.519-4.094 15.080-3.274 22.101-0.5 10.121 3.991 18.7 11.693 26.87 18.664 4.83 4.12 10.452 10.925 17.137 11.576 5.105 0.49 12-3.621 17.103-4.496 13.334-2.272 28.908 1.587 41.782 4.769 12.217 3.016 26.524 7.787 33.714 18.849 4.298 6.612-6.261 12.717-10.525 6.146-5.756-8.855-19.812-11.615-29.311-13.961-11.149-2.757-24.086-5.476-35.577-3.516-8.66 1.473-15.665 6.71-24.569 2.743-11.927-5.315-21.038-16.484-31.571-24.025-4.713-3.374-10.099-6.617-15.994-7.073-2.426-0.188-4.403 0.702-6.046 2.185 1.297 3.009 2.584 6.032 3.811 9.082 11.888 29.511 17.264 59.48 22.782 90.565 2.804 15.796 7.468 40.687-15.172 42.206-20.005 1.336-37.293-27.519-43.686-42.725-5.717-13.6-6.354-29.399-5.917-43.92 0.271-9.050 3.528-18.447 5.929-27.804-19.198-3.079-36.118-22.469-33.153-41.691 2.918-18.915 26.57-9.148 35.404-2.148 8.94 7.083 11.835 15.931 11.93 25.473 1.782-2.938 3.272-6.461 4.813-9.757-10.301-23.106-23.216-45.068-38.58-64.919zM235.422 134.966c-1.804-8.041-11.978-15.979-19.99-16.72-6.302-0.585-2.458 10.672-1.212 13.188 3.911 7.904 13.6 13.063 21.745 15.287 0.38-3.967 0.319-7.897-0.544-11.754zM245.604 158.569c-2.075 9.694-4.954 19.429-5.7 28.24-1.443 17.006 1.577 34.826 10.011 49.698 5.269 9.294 16.009 23.537 27.402 24.756 10.174 1.083 3.969-23.662 3.089-28.633-2.723-15.345-4.667-30.576-8.463-45.746-3.525-14.087-7.992-28.038-13.334-41.679-2.84 7.068-6.539 11.593-13.005 13.363z" />
<glyph unicode="&#xe601;" glyph-name="search" d="M916.121 852.136c-69.561 69.556-162.042 107.864-260.409 107.864s-190.847-38.308-260.409-107.864-107.859-162.037-107.859-260.404c0-82.686 27.157-161.151 77.104-225.401l-70.831-70.831-7.15 7.15c-9.835 9.83-25.782 9.835-35.627 0l-227.004-227.004c-31.894-31.894-31.894-83.79 0-115.688 15.448-15.448 35.995-23.958 57.842-23.958s42.394 8.51 57.842 23.958l226.999 226.999c9.84 9.84 9.84 25.792 0 35.627l-7.15 7.15 70.831 70.831c64.246-49.941 142.715-77.099 225.401-77.099 98.366 0 190.847 38.308 260.404 107.859 69.556 69.556 107.864 162.037 107.864 260.404 0.010 98.371-38.292 190.852-107.849 260.409zM880.489 366.956c-60.038-60.038-139.868-93.106-224.777-93.106-84.913 0-164.738 33.068-224.777 93.106s-93.106 139.868-93.106 224.777c0 84.913 33.068 164.738 93.106 224.777 60.044 60.038 139.868 93.106 224.777 93.106s164.738-33.068 224.777-93.106c60.044-60.038 93.106-139.868 93.106-224.777s-33.062-164.738-93.106-224.777zM673.337 846.070c1.879-13.77-7.749-26.462-21.514-28.367-8.676-1.224-208.517-31.667-208.517-225.971 0-13.911-11.281-25.192-25.192-25.192s-25.192 11.281-25.192 25.192c0 125.030 69.148 193.674 127.156 229.241 61.374 37.632 122.324 46.294 124.889 46.646 13.79 1.884 26.487-7.769 28.372-21.55z" />
<glyph unicode="&#xe602;" glyph-name="socialize" d="M939.656 521.643c-2.909 5.041-8.288 8.146-14.109 8.146h-113.621c-5.826 0-11.2-3.103-14.111-8.146l-18.483-32.008-145.764 83.179 20.234 35.047c2.909 5.041 2.909 11.252 0 16.291l-17.76 30.761 142.049 89.608 19.723-34.155c2.909-5.039 8.285-8.146 14.111-8.146h113.621c5.822 0 11.198 3.105 14.109 8.148l56.813 98.404c2.909 5.039 2.909 11.252 0 16.293l-56.813 98.402c-2.909 5.043-8.288 8.146-14.109 8.146h-113.621c-5.826 0-11.2-3.103-14.111-8.144l-56.821-98.404c-2.911-5.043-2.911-11.254 0-16.293l20.006-34.647-142.045-89.612-21.965 38.043c-2.909 5.041-8.29 8.148-14.107 8.148h-113.623c-5.824 0-11.2-3.105-14.111-8.146l-20.85-36.108-62.335 34.88 33.238 57.57c4.29 7.432 4.29 16.588 0 24.018l-83.754 145.073c-4.29 7.43-12.218 12.009-20.799 12.009h-167.51c-8.583 0-16.511-4.579-20.801-12.009l-83.769-145.073c-4.292-7.432-4.292-16.588 0-24.018l83.769-145.075c4.29-7.432 12.218-12.007 20.801-12.007h73.056v-347.633h-73.056c-8.583 0-16.511-4.577-20.801-12.007l-83.769-145.071c-4.292-7.434-4.292-16.59 0-24.022l83.769-145.073c4.29-7.432 12.218-12.009 20.801-12.009h167.51c8.581 0 16.509 4.579 20.799 12.009l82.156 142.303h150.657l53.806-93.184c2.909-5.041 8.288-8.146 14.111-8.146h113.623c5.819 0 11.194 3.105 14.107 8.148l56.813 98.404c2.909 5.043 2.909 11.252 0 16.291l-56.813 98.404c-2.911 5.041-8.288 8.146-14.107 8.146h-113.623c-5.824 0-11.2-3.105-14.111-8.146l-49.515-85.752h-157.606l-79.498 137.695c-4.29 7.432-12.218 12.009-20.799 12.009h-60.277v347.63h60.277c8.581 0 16.509 4.579 20.799 12.009l33.289 57.662 62.489-34.611-18.896-32.727c-2.911-5.039-2.911-11.25 0-16.291l56.821-98.406c2.909-5.043 8.288-8.146 14.111-8.146h113.623c5.817 0 11.196 3.105 14.107 8.148l19.492 33.762 145.757-83.185-21.248-36.794c-2.911-5.039-2.911-11.252 0-16.293l56.821-98.406c2.909-5.039 8.285-8.146 14.111-8.146h113.621c5.822 0 11.198 3.108 14.109 8.151l56.813 98.402c2.909 5.041 2.909 11.254 0 16.293l-56.813 98.406zM868.727 901.821c16.297 0 29.448-18.573 29.448-41.461 0-14.255-5.094-26.824-12.871-34.284v-19.069h4.337c-0.819-3.142-2.31-6.010-4.337-8.422-3.972-4.727-9.919-7.74-16.577-7.74-6.628 0-12.565 3.011-16.528 7.736-2.030 2.417-3.522 5.285-4.344 8.427h4.344v19.064c-7.766 7.458-12.864 20.029-12.864 34.288 0 22.888 13.149 41.461 29.392 41.461zM808.476 760.477l2.778 7.272 10.655 27.746c2.393 6.226 8.029 10.659 14.646 11.511l0.004 0.002c1.67-9.601 7.537-17.903 15.64-22.679 1.181-0.697 2.404-1.324 3.672-1.869 3.95-1.7 8.298-2.646 12.858-2.646 4.583 0 8.944 0.945 12.899 2.646 1.27 0.545 2.496 1.172 3.679 1.869 8.106 4.774 13.966 13.078 15.634 22.679l0.004-0.002c6.621-0.853 12.242-5.276 14.637-11.506l10.672-27.75 2.817-7.272c1.608-4.273 0.038-9.122-3.786-11.626-16.325-10.597-35.68-16.821-56.515-16.821-20.876 0-40.218 6.224-56.511 16.821-3.863 2.504-5.426 7.342-3.783 11.626zM678.977 188.582c16.297 0 29.448-18.573 29.448-41.459 0-14.257-5.094-26.824-12.871-34.284v-19.071h4.337c-0.819-3.14-2.31-6.008-4.337-8.422-3.969-4.729-9.919-7.74-16.577-7.74-6.626 0-12.565 3.011-16.53 7.736-2.030 2.415-3.52 5.285-4.344 8.427h4.344v19.064c-7.766 7.46-12.862 20.031-12.862 34.29 0.002 22.886 13.149 41.459 29.392 41.459zM618.727 47.243l2.778 7.267 10.655 27.746c2.393 6.228 8.029 10.661 14.646 11.513h0.004c1.67-9.599 7.539-17.899 15.64-22.679 1.181-0.695 2.404-1.322 3.672-1.867 3.952-1.7 8.298-2.646 12.858-2.646 4.583 0 8.944 0.945 12.899 2.646 1.27 0.545 2.496 1.172 3.679 1.867 8.106 4.776 13.966 13.080 15.634 22.679h0.004c6.621-0.851 12.24-5.276 14.637-11.504l10.672-27.754 2.819-7.267c1.606-4.277 0.036-9.124-3.79-11.63-16.325-10.595-35.68-16.819-56.513-16.819-20.878 0-40.218 6.224-56.513 16.819-3.863 2.507-5.426 7.344-3.781 11.63zM264.37 90.479c9.759-1.258 18.044-7.778 21.577-16.962l15.734-40.914 4.158-10.719c2.365-6.301 0.056-13.446-5.588-17.142-24.065-15.621-52.597-24.798-83.311-24.798-30.782 0-59.296 9.177-83.313 24.798-5.691 3.696-7.999 10.826-5.573 17.142l4.091 10.719 15.713 40.903c3.527 9.181 11.833 15.72 21.59 16.973h0.006c2.46-14.152 11.115-26.39 23.053-33.432 1.739-1.024 3.546-1.948 5.413-2.755 5.826-2.507 12.236-3.901 18.955-3.901 6.754 0 13.183 1.394 19.017 3.901 1.874 0.804 3.681 1.73 5.422 2.755 11.953 7.041 20.592 19.283 23.047 33.432h0.009zM260.292 169.139c0-21.017-7.511-39.543-18.975-50.544v-28.115h6.397c-1.208-4.628-3.409-8.856-6.397-12.415-5.854-6.97-14.622-11.412-24.439-11.412-9.765 0-18.521 4.44-24.371 11.406-2.99 3.561-5.191 7.791-6.401 12.422h6.401v28.109c-11.451 10.999-18.964 29.529-18.964 50.551 0 33.742 19.385 61.122 43.335 61.122 24.026 0 43.414-27.38 43.414-61.122zM216.878 916.075c24.026 0 43.414-27.38 43.414-61.122 0-21.015-7.511-39.545-18.975-50.544v-28.113h6.397c-1.208-4.63-3.409-8.859-6.397-12.417-5.854-6.97-14.622-11.41-24.439-11.41-9.765 0-18.521 4.438-24.371 11.404-2.99 3.561-5.191 7.791-6.401 12.424h6.401v28.105c-11.451 10.999-18.964 29.531-18.964 50.553 0 33.742 19.387 61.122 43.335 61.122zM300.252 690.561c-24.065-15.623-52.597-24.796-83.311-24.796-30.782 0-59.296 9.173-83.313 24.796-5.691 3.694-7.999 10.826-5.573 17.144l4.091 10.717 15.713 40.903c3.527 9.181 11.833 15.717 21.59 16.973l0.006 0.002c2.46-14.152 11.115-26.392 23.053-33.434 1.739-1.024 3.546-1.951 5.413-2.755 5.826-2.507 12.236-3.899 18.955-3.899 6.754 0 13.183 1.392 19.017 3.899 1.874 0.804 3.681 1.728 5.422 2.755 11.953 7.041 20.592 19.283 23.047 33.434l0.006-0.002c9.759-1.26 18.044-7.776 21.577-16.962l15.734-40.914 4.158-10.717c2.37-6.305 0.060-13.452-5.586-17.144zM526.061 700.906c16.297 0 29.448-18.573 29.448-41.459 0-14.257-5.097-26.824-12.871-34.284v-19.071h4.337c-0.819-3.14-2.31-6.008-4.337-8.422-3.969-4.729-9.919-7.74-16.577-7.74-6.626 0-12.565 3.011-16.532 7.736-2.027 2.415-3.518 5.285-4.344 8.427h4.344v19.064c-7.764 7.46-12.862 20.031-12.862 34.29 0.002 22.888 13.153 41.459 29.394 41.459zM582.617 547.939c-16.325-10.595-35.68-16.819-56.515-16.819-20.876 0-40.216 6.224-56.511 16.819-3.86 2.507-5.424 7.344-3.781 11.63l2.778 7.267 10.655 27.746c2.393 6.228 8.029 10.661 14.644 11.513h0.006c1.668-9.599 7.539-17.899 15.636-22.679 1.183-0.695 2.406-1.322 3.672-1.867 3.954-1.7 8.3-2.646 12.86-2.646 4.583 0 8.944 0.945 12.899 2.646 1.27 0.545 2.496 1.172 3.679 1.867 8.106 4.776 13.966 13.080 15.634 22.679h0.004c6.621-0.851 12.24-5.276 14.637-11.504l10.672-27.754 2.819-7.267c1.606-4.277 0.038-9.124-3.788-11.63zM868.727 499.995c16.297 0 29.448-18.573 29.448-41.461 0-14.255-5.094-26.822-12.871-34.281v-19.071h4.337c-0.819-3.14-2.31-6.010-4.337-8.424-3.972-4.727-9.919-7.74-16.577-7.74-6.628 0-12.565 3.011-16.528 7.736-2.030 2.417-3.522 5.285-4.344 8.429h4.344v19.064c-7.766 7.458-12.864 20.031-12.864 34.288 0 22.888 13.149 41.461 29.392 41.461zM925.284 347.028c-16.325-10.595-35.68-16.819-56.515-16.819-20.876 0-40.218 6.224-56.511 16.819-3.86 2.504-5.424 7.342-3.781 11.626l2.778 7.269 10.655 27.746c2.393 6.226 8.029 10.661 14.646 11.511l0.004 0.002c1.67-9.601 7.537-17.901 15.64-22.679 1.181-0.695 2.404-1.322 3.672-1.869 3.95-1.7 8.298-2.643 12.858-2.643 4.583 0 8.944 0.943 12.899 2.643 1.27 0.548 2.496 1.174 3.679 1.869 8.106 4.776 13.966 13.080 15.634 22.679l0.004-0.002c6.621-0.851 12.242-5.276 14.637-11.504l10.672-27.752 2.817-7.269c1.606-4.275 0.036-9.124-3.788-11.626z" />
<glyph unicode="&#xe603;" glyph-name="marriee" d="M729.723 448.011c135.357 46.239 225.183 134.827 225.183 238.821 0 153.172-194.549 273.168-442.896 273.168s-442.94-119.996-442.94-273.168c0-104.016 89.848-192.604 225.205-238.821-135.357-46.239-225.205-134.827-225.205-238.843 0-153.172 194.549-273.168 442.918-273.168s442.918 119.996 442.918 273.168c0 104.016-89.848 192.604-225.183 238.843zM157.482 686.832c0 100.148 162.367 184.757 354.529 184.757s354.507-84.609 354.507-184.757-162.345-184.757-354.507-184.757-354.529 84.609-354.529 184.757zM512.011 74.673c-118.316 0-207.523 44.427-207.523 103.353 0 40.934 43.078 74.818 109.011 91.749 5.305 49.997 47.101 89.096 98.512 89.096s93.207-39.1 98.512-89.096c65.911-16.909 109.011-50.814 109.011-91.749-0.022-58.926-89.229-103.353-207.523-103.353zM675.306 178.026c0-24.114-63.612-59.147-163.295-59.147s-163.317 35.033-163.317 59.147c0 15.317 25.75 35.033 70.066 47.388 13.903-38.216 50.218-65.689 93.252-65.689s79.349 27.452 93.252 65.689c44.294-12.355 70.044-32.049 70.044-47.388z" />
<glyph unicode="&#xe604;" glyph-name="interest-in-you" d="M596.115 789.655l-3.212 3.212 20.884 19.276 3.212-3.212-20.884-19.276zM583.263 796.082l-1.606 28.915h-4.819l1.606-28.915h4.819zM830.652 701.304c20.884-11.245 88.353-51.405 97.992-57.83 11.245-6.427-22.49-27.309-24.096-51.405-1.606-32.127 16.064-9.639 16.064-9.639l9.639 17.67c22.49 38.554 41.766 69.075 4.819 91.565l-20.884 12.851c0 0-27.309 9.639-53.011 83.533-19.276-22.49-1.606-49.799-1.606-49.799s-20.884 30.521-30.521 28.915c0-1.604-19.278-54.618 1.606-65.861zM570.412 788.049l-20.884 19.276-3.212-4.819 20.884-19.276 3.212 4.819zM445.113 858.732c-19.276 22.49-51.405 12.851-54.618-14.457v0c-3.212-24.096 17.67-40.16 36.948-54.618v0c0 0 11.245-8.033 14.457-12.851l1.606-1.606c1.606 0 1.606 0 1.606 1.606 3.212 3.212 9.639 8.033 12.851 9.639 0 0 1.606 1.606 3.212 1.606v0c17.67 14.457 40.16 30.521 36.948 54.618v0c-1.606 28.915-35.341 38.554-53.011 16.064zM411.378 522.992c-36.948-3.212-69.075 3.212-94.778 24.096-4.819 40.16-9.639 81.926-14.457 122.088-3.212 33.735-25.703 62.65-62.65 64.256-32.129 0-67.469-28.915-64.256-62.65 8.033-65.863 14.457-131.725 24.096-195.982l-112.449-221.686 141.364-1.606c0-64.256 0-126.907 0-191.163 0-54.618 83.534-54.618 83.534 0 0 62.65 0 126.907 0 189.557h25.703v212.045c22.49-6.425 48.193-9.639 73.895-6.425 43.371 4.819 43.371 72.287-0.002 67.469zM965.59 28.216c-44.98 14.457-91.565 28.915-136.546 44.979-57.83 19.278-93.171 70.683-112.449 126.907-8.033 3.212-17.67 6.425-24.096 12.851-16.064 0-32.129 1.606-46.587 1.606 3.212-51.405 25.703-99.598 54.618-141.364 33.735-51.405-48.193-99.598-81.926-48.193-49.799 75.502-75.502 160.642-62.65 250.599 3.212 20.884 27.309 35.341 46.587 35.341 22.49 0 44.979 0 67.469 0 1.606 56.224 11.245 117.268 35.341 170.279l-3.212-49.799 49.799 69.075c-6.425 4.819-115.662 85.14-162.248 117.268-25.703 16.064-25.703 44.98-14.457 65.863h-30.521v51.405h8.033c-1.606 4.819-3.212 8.033-3.212 12.851 0 11.245 6.427 22.49 16.064 27.309l16.064 17.67 16.064-17.67c9.639-6.425 16.064-16.064 16.064-27.309 0-4.819-1.606-9.639-3.212-12.851h19.276v85.144h28.915v-138.152c51.405-35.341 99.598-70.683 149.397-107.629 19.276 1.606 38.554-4.819 53.011-19.278 25.703-25.703 30.521-77.108 0-101.204-49.799-41.766-51.405-128.513-51.405-189.557 0-1.606 1.606-25.703-3.212-35.341 3.212-11.245 14.457-48.193 73.895-73.895 36.948-11.245 73.895-24.096 109.235-35.341 59.44-19.274 35.343-110.84-24.095-91.564zM607.36 744.676c0 9.639-6.427 19.276-14.457 22.49h-20.884c-8.033-4.819-14.457-12.851-14.457-22.49 0-4.819 1.606-9.639 3.212-12.851h43.372c1.608 3.212 3.214 8.033 3.214 12.851zM706.958 346.286c0 11.245-4.819 19.276-9.639 19.276-4.819 0-9.639-8.033-9.639-19.276 0-11.245 4.819-19.278 9.639-19.278 6.427 0 9.639 8.033 9.639 19.278zM711.776 388.053c0 11.245-4.819 19.278-9.639 19.278-4.819 0-9.639-8.033-9.639-19.278s4.819-19.276 9.639-19.276c6.427 0 9.639 9.637 9.639 19.276zM106.159 680.42c33.735-3.212 48.193 17.67 51.405 51.405 4.819 46.587-4.819 77.108 3.212 106.023 6.425 0 12.851-1.606 19.276-3.212-1.606-6.425-3.212-14.457-3.212-20.884 0-38.554 32.129-70.681 70.683-70.681s70.681 32.129 70.681 70.681-32.127 70.683-70.681 70.683c-17.67 0-35.341-6.427-48.193-19.278-49.797 54.619-110.841 22.49-86.745-41.766 28.915-81.926 44.979-134.938-6.427-142.97zM35.478 543.874c-12.851 14.457-33.735 8.033-35.341-9.639v0c-1.606-16.064 11.245-25.703 24.096-35.341v0c0 0 9.639-8.033 11.245-8.033l11.245 8.033c12.851 9.639 25.703 19.276 24.096 35.341v0c-1.608 17.672-22.49 24.096-35.341 9.639z" />
<glyph unicode="&#xe605;" glyph-name="marriage" d="M319.756 50.766c72.197 0 138.673 24.348 192.245 64.857 53.588-40.528 120.046-64.857 192.243-64.857 176.329 0 319.758 143.425 319.758 319.738 0 176.329-143.427 319.756-319.758 319.756-72.197 0-138.671-24.348-192.243-64.855-53.588 40.526-120.047 64.855-192.245 64.855-176.329-0.002-319.756-143.427-319.756-319.756 0-176.294 143.427-319.738 319.756-319.738zM511.999 499.704c24.909-36.935 39.468-81.404 39.468-129.201s-14.559-92.266-39.468-129.201c-24.911 36.935-39.47 81.404-39.47 129.201s14.577 92.266 39.47 129.201zM704.261 602.234c127.776 0 231.731-103.955 231.731-231.731 0-127.774-103.955-231.713-231.731-231.713-47.92 0-92.495 14.629-129.483 39.645 40.438 53.555 64.732 119.941 64.732 192.068s-24.294 138.533-64.732 192.085c36.988 25.018 81.563 39.646 129.483 39.646zM319.756 602.234c47.92 0 92.495-14.629 129.483-39.646-40.438-53.553-64.732-119.959-64.732-192.085s24.294-138.513 64.732-192.068c-36.988-25.016-81.563-39.645-129.483-39.645-127.774 0-231.731 103.939-231.731 231.713-0.002 127.776 103.955 231.731 231.731 231.731zM505.821 816.643h-0.352c0 0-48.66 53.29-91.123 14.365s-5.317-128.603 91.123-167.527l0.352-0.335c96.422 38.925 133.585 128.938 91.121 167.861-42.461 38.927-91.121-14.364-91.121-14.364z" />
<glyph unicode="&#xe606;" glyph-name="no-dowry" d="M292.435 590.252c-4.175 7.779-10.124 14.417-17.229 19.687-8.393 6.227-18.405 10.472-29.55 11.579-0.095 0.009-0.18 0.046-0.277 0.055-2.785 0.286-5.488 0.105-8.203 0.006 16.053-4.497 30.204-15.4 37.918-31.636l38.122-80.166 47.068 4.438 10.314 16.744-21.644-5.676-56.518 64.969zM478.359 550.55l-36.93 22.757c-2.255 1.389-4.834 2.112-7.453 2.112-1.086 0-2.182-0.128-3.268-0.384-3.656-0.876-6.818-3.164-8.79-6.363l-33.826-54.91c24.642-5.4 44.212-26.056 46.716-52.552 0.272-2.874 0.079-5.667-0.054-8.469l48.239 78.301c4.109 6.667 2.031 15.4-4.635 19.51zM265.291 342.537c9.412 9.477 15.865 22.006 17.217 36.346l0.753 7.982-0.45-0.040c-1.892-0.187-3.773-0.27-5.641-0.27-22.884 0-43.994 13.136-53.964 34.105l-47.423 99.711-12.299-130.255c-1.383-14.645 2.863-28.396 10.656-39.589l38.779-113.655-14.034-103.295c-3.117-22.909 12.925-43.994 35.821-47.1 1.914-0.269 3.818-0.384 5.699-0.384 20.606 0 38.552 15.225 41.4 36.206l15.366 113.090c0.877 6.446 0.246 13.007-1.855 19.148l-30.026 88.002zM295.855 636.534c39.533 10.298 63.235 50.707 52.935 90.243-10.296 39.533-50.694 63.236-90.228 52.935-39.533-10.297-63.236-50.707-52.938-90.241 10.298-39.532 50.698-63.233 90.23-52.938zM371.922 491.295l-73.113-6.9-45.313 95.273c-8.513 17.899-29.949 25.5-47.79 16.99-17.899-8.501-25.5-29.902-16.987-47.789l56.089-117.936c5.977-12.587 18.646-20.467 32.378-20.467 1.121 0 2.254 0.046 3.386 0.163l98.098 9.26c19.721 1.855 34.198 19.359 32.33 39.079-1.857 19.731-19.499 34.394-39.079 32.328zM859.615 390.114l-16.766 177.563c-3.107 32.877-32.494 57.247-65.127 53.894-23.002-2.173-41.488-17.226-49.589-37.262l5.245 4.79c24.379 22.243 62.198 20.561 84.45-3.818 22.265-24.379 20.56-62.186-3.82-84.45l-78.188-71.419 4.771-50.536c1.351-14.338 7.806-26.868 17.217-36.345l-30.024-88.001c-2.103-6.14-2.733-12.703-1.856-19.147l15.366-113.091c2.848-20.981 20.795-36.206 41.401-36.206 1.879 0 3.783 0.117 5.698 0.384 22.896 3.106 38.939 24.192 35.822 47.099l-14.034 103.296 38.782 113.655c7.793 11.196 12.035 24.946 10.652 39.591zM727.247 636.534c39.535-10.297 79.934 13.404 90.228 52.939 10.301 39.533-13.402 79.944-52.933 90.241-39.538 10.3-79.933-13.403-90.232-52.935-10.296-39.536 13.404-79.946 52.938-90.245zM800.173 569.16c-13.358 14.606-36.066 15.657-50.672 2.288l-76.569-69.937h-96.84c-19.814 0-35.866-16.053-35.866-35.867s16.053-35.868 35.866-35.868h110.755c8.956 0 17.583 3.352 24.193 9.387l86.843 79.326c14.632 13.356 15.648 36.042 2.29 50.671zM568.365 677.909c0 22.489-11.992 36.207-41.731 46.701-21.222 8-29.97 13.243-29.97 21.486 0 7.005 5.244 13.986 21.495 13.986 9.070 0 16.496-1.459 22.464-3.258 3.596-1.097 7.496-0.652 10.765 1.192 3.269 1.847 5.65 4.949 6.587 8.592l0.234 0.899c1.925 7.519-2.559 15.19-10.056 17.21-6.278 1.693-13.811 2.932-23.012 3.342v9.749c0 6.759-5.476 12.236-12.237 12.236-6.77 0-12.247-5.476-12.247-12.236v-11.489c-26.729-5.242-42.208-22.487-42.208-44.463 0-24.226 18.225-36.719 44.953-45.722 18.494-6.234 26.49-12.236 26.49-21.717 0-9.992-9.747-15.506-23.981-15.506-10.11 0-19.636 2.043-27.926 4.963-3.551 1.261-7.472 0.946-10.788-0.829-3.329-1.774-5.755-4.857-6.691-8.498l-0.231-0.924c-2.057-8.031 2.544-16.264 10.463-18.74 8.417-2.627 18.459-4.484 28.673-4.938v-11.502c0-6.761 5.475-12.237 12.237-12.237 6.772 0 12.248 5.476 12.248 12.237v13.251c28.721 4.989 44.471 23.985 44.471 46.216zM441.408 397.601l151.463-151.463-11.179-11.179-151.463 151.463 11.179 11.179zM592.877 386.408l-151.462-151.462-11.179 11.179 151.462 151.462 11.179-11.179z" />
<glyph unicode="&#xe607;" glyph-name="members" d="M675.687 175.395c-59.077 30.347-120.353 55.447-182.284 79.242-4.592 1.768-10.114 5.21-12.007 9.37-5.028 11.107-8.533 22.958-12.163 34.72-2.267 7.478-4.342 14.518-12.506 18.091-2.174 0.931-4.248 5.304-4.191 8.034 0.437 27.211-5.834 55.754 14.274 79.46 0.65 0.712 0.868 1.83 1.305 2.668 10.857 23.831 12.813 50.98 27.986 73.132 0.374 0.494 0.494 1.243 0.525 1.924 1.799 16.879 3.598 33.727 5.028 50.637 0.156 2.111-1.706 5.834-3.474 6.453-8.408 3.011-7.914 9.682-7.883 16.442 0.062 33.014 0 66.029-0.031 99.007-0.031 19.177-5.678 36.238-20.139 49.301-16.505 14.861-33.477 29.198-50.419 43.56-8.19 6.921-8.934 12.256-1.274 19.89 3.38 3.349 7.758 5.772 11.7 8.627-0.837 1.305-1.706 2.574-2.543 3.848-5.122 0-10.363 0.681-15.361-0.094-18.741-3.042-37.544-5.678-56.035-10.020-35.152-8.315-69.315-19.297-97.863-42.848-19.64-16.135-35.214-34.876-37.107-61.432-0.993-13.868-0.868-27.861-0.993-41.792-0.125-22.651 0.187-45.364-0.281-68.010-0.094-3.692-2.205-9.745-4.685-10.582-9.214-2.98-9.464-8.845-8.221-16.505 0.837-5.21 0.156-10.738 1.336-15.855 3.198-14.211 6.547-28.361 10.644-42.322 3.073-10.395 8.965-20.228 10.613-30.778 3.26-21.096 11.045-39.468 25.287-55.416 2.356-2.636 4.16-7.103 3.879-10.519-1.056-16.26-2.761-32.546-4.935-48.651-0.437-3.136-3.754-7.821-6.484-8.408-10.795-2.236-12.475-10.613-15.017-18.959-3.38-11.107-7.041-22.183-11.294-32.952-1.368-3.292-4.685-6.828-8.003-8.284-19.203-8.408-38.755-16.073-58.083-24.169-20.571-8.627-41.36-16.91-61.432-26.499-20.727-9.864-40.768-21.039-61.063-31.896-11.913-6.391-23.083-13.468-32.484-22.245v-35.557c235.469 0 470.933 0 706.34 0v37.044c-8.668 8.814-18.907 16.323-30.664 22.344zM944.628 207.167c-28.267 10.457-56.066 22.526-83.527 35.001-7.821 3.567-13.587 11.388-20.727 16.817-3.136 2.387-6.89 4.592-10.644 5.179-12.75 2.018-18.429 6.547-21.377 19.146-4.004 16.505-6.828 32.952-3.318 50.169 1.487 7.478 4.217 12.287 11.513 15.111 15.080 5.897 30.004 12.475 44.959 18.803 11.138 4.716 11.882 8.658 7.821 20.228-12.906 36.488-22.464 73.532-25.568 112.475-1.924 24.606-1.336 49.769-7.259 73.969h-0.931c-0.556 2.236-0.775 4.498-1.399 6.703-10.826 42.629-56.596 65.811-95.008 68.229-0.343 0.031-0.65 0.094-0.931 0.125-2.948 0.156-5.772-0.25-8.596-0.437-16.198-2.236-29.447-12.475-44.834-16.973-20.046-5.897-32.271-24.294-39.806-44.153-10.613-28.173-8.627-58.239-10.982-87.437-3.198-38.968-12.719-76.049-25.568-112.475-4.066-11.575-3.349-15.511 7.821-20.228 14.924-6.36 29.848-12.906 44.959-18.803 7.259-2.855 9.989-7.602 11.513-15.111 3.411-17.222 0.65-33.633-3.318-50.169-3.042-12.599-8.658-17.129-21.408-19.146-3.723-0.588-7.54-2.824-10.644-5.179-7.103-5.429-12.906-13.249-20.727-16.817-3.26-1.487-6.64-2.886-9.864-4.373 26.775-11.7 54.111-24.263 81.447-38.256 14.43-7.446 27.087-16.723 37.7-27.643l7.634-7.914v-48.094c1.737 0 3.349 0 5.091 0 0.187 0 0.437 0 0.65 0 94.946 0 189.762 0 284.708 0-7.207 47.288-35.906 75.243-79.377 91.254z" />
<glyph unicode="&#xe608;" glyph-name="social-approach" d="M282.4 851.6c0-59.868-48.532-108.4-108.4-108.4s-108.4 48.532-108.4 108.4c0 59.868 48.532 108.4 108.4 108.4s108.4-48.532 108.4-108.4zM958.799 851.6c0-59.868-48.532-108.4-108.4-108.4s-108.4 48.532-108.4 108.4c0 59.868 48.532 108.4 108.4 108.4s108.4-48.532 108.4-108.4zM958.398 274c0-59.646-48.353-107.999-107.999-107.999s-107.999 48.353-107.999 107.999c0 59.646 48.353 107.999 107.999 107.999s107.999-48.353 107.999-107.999zM282.4 274c0-59.868-48.532-108.4-108.4-108.4s-108.4 48.532-108.4 108.4c0 59.868 48.532 108.4 108.4 108.4s108.4-48.532 108.4-108.4zM997.199 591.6c0 78.001-65.6 140.8-146.399 140.8-81.2 0-146.8-63.2-146.8-140.8v-51.2l-85.2-90.801h-210.8l-87.599 93.2v48.8c0 78.001-65.6 140.8-146.8 140.8s-146.8-63.2-146.8-140.8v-78.4h262.399l72.001-76.8v-170l-84.4-152c-26.4 25.199-62.799 40.8-102.801 40.8-81.2 0-146.8-63.2-146.8-140.8v-78.4h293.199v78.4c0 22.8-6 43.6-16 62.799l101.6 181.201h214.4l100.399-179.2c-10.4-19.6-17.2-41.2-17.2-64.8v-78.4h293.199v78.4c0 78.001-65.6 140.8-146.399 140.8-39.2 0-74.799-15.2-101.199-39.2l-93.2 166.801v144l80.799 86.4h260.4v78.4z" />
<glyph unicode="&#xe609;" glyph-name="local-matches" d="M987.429 314.524c-20.197 0-36.571-16.374-36.571-36.571v-268.81h-268.807c-20.197 0-36.571-16.374-36.571-36.571s16.374-36.571 36.571-36.571h305.379c20.197 0 36.571 16.374 36.571 36.571v305.381c0 20.197-16.374 36.571-36.571 36.571zM341.95 9.143h-268.807v268.81c0 20.197-16.374 36.571-36.571 36.571s-36.571-16.374-36.571-36.571v-305.381c0-20.197 16.374-36.571 36.571-36.571h305.379c20.197 0 36.571 16.374 36.571 36.571s-16.372 36.571-36.571 36.571zM987.429 960h-305.379c-20.197 0-36.571-16.374-36.571-36.571s16.374-36.571 36.571-36.571h268.807v-268.81c0-20.197 16.374-36.571 36.571-36.571s36.571 16.374 36.571 36.571v305.381c0 20.197-16.374 36.571-36.571 36.571zM36.571 581.476c20.197 0 36.571 16.374 36.571 36.571v268.81h268.807c20.197 0 36.571 16.374 36.571 36.571s-16.374 36.571-36.571 36.571h-305.379c-20.197 0-36.571-16.374-36.571-36.571v-305.381c0-20.197 16.374-36.571 36.571-36.571zM308.748 598.109c1.146-107.454 46.809-172.644 121.259-171.503 0 0 121.217-4.915 121.217 171.503 0 78.463-40.955 119.177-121.217 119.177-78.568 0-122.056-40.716-121.259-119.177zM526.941 391.88l-3.65 1.456-28.357 23.901c-7.495 6.332-18.559 5.861-25.502-1.048l-39.429-39.212-39.553 39.227c-6.949 6.895-18 7.339-25.483 1.034l-28.362-23.901-121.115-48.301c-39.005-15.526-38.966-153.646-42.316-166.327h484.979c-15.216 16.789-37.934 43.325-60.699 75.374-26.324 37.052-56.34 86.986-70.512 137.799zM701.023 178.715c2.37 0 4.623 0.97 6.246 2.701 13.783 14.653 40.992 44.983 68.264 83.388 34.353 48.352 75.288 119.262 75.288 182.469 0 82.598-67.199 149.792-149.797 149.792s-149.799-67.196-149.799-149.792c0-63.247 40.992-134.2 75.381-182.601 27.26-38.378 54.411-68.63 68.172-83.256 1.616-1.731 3.879-2.701 6.244-2.701zM609.558 449.221c0 50.432 41.038 91.468 91.472 91.468 50.432 0 91.468-41.036 91.468-91.468 0-50.427-41.036-91.475-91.468-91.475-50.434 0-91.472 41.048-91.472 91.475z" />
<glyph unicode="&#xe60a;" glyph-name="shopping159" d="M277.598 254.34l26.168 26.168h191.447l-122.156 220.717-90.336-18.375c-23.69-4.81-42.595-22.656-48.776-46.034l-107.244-349.992c-5.051-19.048-0.938-39.372 11.088-54.957 12.026-15.633 30.617-24.773 50.339-24.773h89.494l-0.024 247.245zM897.347 86.825l-107.244 349.992c-6.277 23.666-25.542 41.632-49.593 46.202l-89.999 17.028-121.651-219.514h205.877l26.168-26.168v-247.221h75.064c19.698 0 38.313 9.139 50.339 24.773 12.002 15.633 16.042 35.86 11.039 54.909zM329.957 7.095h-7.263v-0.096l385.852 0.096v221.030h-378.589zM225.407-16.667h573.21v-47.333h-573.21v47.333zM307.95 655.657c1.010-2.068 2.333-5.243 3.728-8.562 5.556-13.372 10.077-23.354 16.355-29.222 29.078-94.882 104.117-160.565 183.847-160.325 79.393 0.265 153.518 66.525 181.514 161.672 6.157 5.917 10.534 15.85 15.946 29.126 1.371 3.391 2.622 6.59 3.608 8.658 10.751 22.223 7.047 46.298-7.985 58.011 0 0.722 0 1.467 0 2.189-0.361 117.778-15.729 243.397-194.814 242.796-180.407-0.577-195.079-120.905-194.694-244.071 0-0.746 0.024-1.467 0.024-2.189-14.912-11.881-18.423-35.98-7.528-58.083zM333.132 693.586l0.529 0.216c2.958 1.082 5.315 3.175 6.831 5.772l31.242-4.834c3.006-0.433 5.917 1.179 7.119 3.944l19.746 45.601c22.343-5.363 106.955-24.484 173.264-24.244 20.54 0.048 37.592 2.044 50.796 5.917l12.531-30.232c1.034-2.549 3.511-4.137 6.133-4.113 0.553 0 1.203 0.096 1.78 0.241l36.389 10.222c1.443-3.199 4.113-5.82 7.528-7.095l0.505-0.168c5.411-2.694 7.191-14.503 1.491-26.24-1.371-2.838-2.79-6.422-4.377-10.222-2.213-5.508-6.758-16.716-9.524-19.722-3.006-1.732-5.291-4.594-6.205-7.985-23.787-86.055-88.508-146.303-157.27-146.543-69.123-0.216-134.734 59.599-159.531 145.461-0.986 3.391-3.223 6.205-6.277 7.913-2.79 3.006-7.504 14.286-9.789 19.818-1.539 3.728-3.030 7.287-4.425 10.077-5.604 11.689-3.92 23.498 1.515 26.216z" />
<glyph unicode="&#xe60b;" glyph-name="cheapest-price" d="M782.869 704.154c-75.18 75.123-278.722 34.504-266.154 46.904l-239.899-239.956c86.681-37.701 147.439-123.931 147.439-224.526 0-86.903-45.499-162.811-113.721-206.291l55.822-55.823c27.66-27.713 72.543-27.713 100.201 0l388.291 388.348c-12.454-12.568 36.581 182.785-71.978 291.345zM661.854 506.67c-40.283 0-72.992 32.709-72.992 73.047s32.709 72.992 72.992 72.992c40.338 0 72.99-32.652 72.99-72.992s-32.709-73.047-72.99-73.047zM0 243.544h303.015v101.098h-303.015v-101.098zM851.595 811.199c-27.996 0-50.717-22.666-50.717-50.717 0-27.939 22.666-50.55 50.717-50.55s50.717 22.609 50.717 50.55c0 27.996-22.721 50.717-50.717 50.717zM973.284 892.325c-27.998 0-50.717-22.666-50.717-50.662 0-28.051 22.723-50.774 50.717-50.774s50.716 22.721 50.716 50.774c-0.055 27.996-22.721 50.662-50.716 50.662z" />
<glyph unicode="&#xe60c;" glyph-name="maangu-logo" horiz-adv-x="2340" d="M628.3 316.007l111.787 0.097c0 0 51.938 69.585 75.786 162.42 0 0 52.8 184.441-114.582 362.17 0 0-163.655 187.82-434.046 92.154 0 0-160.386-44.74-240.002-243.895 0 0-56.019-118.341-7.396-241.060 0 0 33.437-100.524 116.645-205.123 83.212-104.598 3.549-4.838 3.549-4.838s164.18-210.796 273.055-301.924c0 0 133.41 132.866 167.549 172.41 0 0 105.243 124.308 128.459 161.468l-99.212-2.578c0 0-90.21-91.649-185.112-156.67 0 0-114.972 88.354-212.134 179.596 0 0-96.057 78.697-107.81 201.433 0 0-20.208 100.144 24.669 188.087 0 0 54.416 128.218 195.102 170.009 0 0 111.276 42.723 238.236-25.704 0 0 106.154-46.603 150.493-188.918 0 0 23.988-90.765 6.999-149.207-0.003-0.003-17.036-100.541-92.033-169.926zM502.713 335.574l64.042-20.745c0 0 51.241 164.153 49.972 313.871 0 0-8.488 120.482-102.287 126.272 0 0-40.586 4.508-97.406-71.251 0 0-55.020 77.041-100.114 77.041 0 0-101.186 3.236-108.765-152.8 0 0-12.091-65.845 42.926-293.132l63.134 19.844c0 0-53.214 203.837-36.078 291.326 0 0 18.041 100.114 54.115 54.115 0 0 29.764-18.558 84.781-142.312 0 0 52.312 117.059 87.489 144.115 0 0 32.469 35.173 43.29-67.645 0 0 9.015-128.075-45.1-278.698zM904.146 315.539c-17.557 0-32.522 7.069-44.87 21.203-11.703 14.912-17.557 32.986-17.557 54.189v75.395c0 20.411 5.853 38.078 17.557 53.007 12.344 14.912 27.313 22.385 44.87 22.385h124.849v75.392h-187.272c0 20.411 5.853 38.081 17.557 53.007 12.344 14.909 27.313 22.381 44.87 22.381h124.849c16.899 0 31.527-7.473 43.888-22.381 12.344-14.929 18.532-32.599 18.532-53.007v-226.175c0-21.203-6.187-39.277-18.532-54.189-12.361-14.134-26.989-21.203-43.888-21.203h-124.853zM1028.995 390.931v75.395h-124.849v-75.395h124.849zM1216.261 315.539c-17.557 0-32.522 7.069-44.866 21.203-11.707 14.912-17.56 32.986-17.56 54.189v75.395c0 20.411 5.853 38.078 17.56 53.007 12.341 14.912 27.31 22.385 44.866 22.385h124.846v75.392h-187.269c0 20.411 5.853 38.081 17.56 53.007 12.341 14.909 27.31 22.381 44.866 22.381h124.846c16.905 0 31.53-7.473 43.891-22.381 12.348-14.929 18.532-32.599 18.532-53.007v-226.175c0-21.203-6.184-39.277-18.532-54.189-12.358-14.134-26.986-21.203-43.891-21.203h-124.849zM1341.103 390.931v75.395h-124.846v-75.395h124.846zM1465.946 315.539v376.958h187.272c16.902 0 31.527-7.473 43.891-22.381 12.344-14.929 18.528-32.599 18.528-53.007v-301.567h-62.416v301.567h-124.849v-301.567h-62.426zM1902.903 89.364v75.392h62.423v150.783h-124.846c-17.557 0-32.525 7.069-44.87 21.203-11.703 14.912-17.557 32.986-17.557 54.189v226.175c0 20.411 5.853 38.081 17.557 53.007 12.344 14.909 27.317 22.381 44.87 22.381h187.265v-527.742c0-20.411-6.191-38.081-18.532-53.010-12.361-14.909-26.989-22.381-43.891-22.381h-62.42zM1965.326 390.931v226.175h-124.846v-226.175h124.846zM2152.588 315.539c-17.553 0-32.519 7.069-44.866 21.203-11.707 14.912-17.56 32.986-17.56 54.189v301.567h62.423v-301.567h124.849v301.567h62.42v-376.958h-187.265z" />
</font></defs></svg>